<?xml version="1.0" encoding="utf-8"?>
<!-- Generator: Adobe Illustrator 17.0.0, SVG Export Plug-In . SVG Version: 6.00 Build 0)  -->
<!DOCTYPE svg PUBLIC "-//W3C//DTD SVG 1.1//EN" "http://www.w3.org/Graphics/SVG/1.1/DTD/svg11.dtd">
<svg version="1.1" id="Ebene_1" xmlns="http://www.w3.org/2000/svg" xmlns:xlink="http://www.w3.org/1999/xlink" x="0px" y="0px"
	 width="140.684px" height="140.684px" viewBox="0 0 140.684 140.684" enable-background="new 0 0 140.684 140.684"
	 xml:space="preserve">
<g transform="translate(65 64)" opacity="0.04">
	<g id="icon-inbox">
		<path fill="#010101" d="M5.341-64c1.765,0,3.271,0.624,4.518,1.871c1.247,1.247,1.871,2.753,1.871,4.518v74.093L32.766-4.602
			c1.234-1.234,2.75-1.851,4.547-1.851c1.829,0,3.354,0.608,4.576,1.823c1.221,1.215,1.829,2.74,1.823,4.576
			c0,1.797-0.617,3.313-1.851,4.547L9.889,36.465c-1.234,1.234-2.75,1.851-4.547,1.851s-3.313-0.617-4.547-1.851L-31.178,4.491
			c-1.234-1.298-1.851-2.814-1.851-4.547c0-1.765,0.624-3.271,1.871-4.518s2.753-1.871,4.518-1.871c1.797,0,3.313,0.617,4.547,1.851
			L-1.056,16.49v-74.092c0-1.765,0.624-3.271,1.871-4.518s2.753-1.871,4.518-1.871L5.341-64z M69.296,25.527
			c1.765,0,3.271,0.624,4.518,1.871s1.871,2.753,1.871,4.518v25.583c0,5.327-1.848,9.839-5.544,13.535
			c-3.767,3.767-8.262,5.65-13.487,5.65h-102.47c-5.231,0-9.762-1.864-13.593-5.592c-3.728-3.831-5.592-8.362-5.592-13.593V31.916
			c0-1.765,0.624-3.271,1.871-4.518c1.247-1.247,2.753-1.871,4.518-1.871s3.271,0.624,4.518,1.871s1.871,2.753,1.871,4.518v25.583
			c0,1.765,0.624,3.271,1.871,4.518c1.247,1.247,2.753,1.871,4.518,1.871H56.634c1.733,0,3.207-0.624,4.422-1.871
			s1.823-2.753,1.823-4.518V31.916c0-1.765,0.624-3.271,1.871-4.518s2.753-1.871,4.518-1.871H69.296z"/>
	</g>
</g>
</svg>
