<?xml version="1.0" encoding="utf-8"?>
<!-- Generator: Adobe Illustrator 18.1.1, SVG Export Plug-In . SVG Version: 6.00 Build 0)  -->
<svg version="1.1" id="Ebene_1" xmlns="http://www.w3.org/2000/svg" xmlns:xlink="http://www.w3.org/1999/xlink" x="0px" y="0px"
	 viewBox="0 0 397.2 75.8" enable-background="new 0 0 397.2 75.8" xml:space="preserve">
<g>
	<path fill="#FFFFFF" d="M48.8,0v15.9H23.5v12.9H47v15.3H23.5v31.1H4.1V0H48.8z"/>
	<path fill="#FFFFFF" d="M68.7,0v75.8h-20V0H68.7z"/>
	<path fill="#FFFFFF" d="M94,0l12.9,46.4l0,0V0h18.2v75.8H104L91.1,29.4l0,0v46.4H72.9V0H94z"/>
	<path fill="#FFFFFF" d="M166.9,0l18.2,75.8h-21.2l-1.8-12.9h-15.9l-1.8,12.9H124L142.2,0C142.2,0,166.9,0,166.9,0z M153.9,15.3
		l-5.3,32.3h11.2L153.9,15.3L153.9,15.3z"/>
	<path fill="#FFFFFF" d="M202.7,0v59.3h24.1v15.9h-44.1V0H202.7z"/>
	<path fill="#FFFFFF" d="M271.4,0v15.9h-25.3v12.9h23.5v15.3h-23.5v15.3H272v15.9h-45.8V0H271.4z"/>
	<path fill="#FFFFFF" d="M303.2,0c5.9,0,10,1.2,13.5,2.9c3.5,1.8,5.3,4.7,7.1,8.2c1.8,3.5,2.4,7.6,2.9,12.3
		c0.6,4.7,0.6,8.8,0.6,14.1s0,9.4-0.6,14.1c-0.6,4.7-1.2,8.8-2.9,12.3c-1.8,3.5-4.1,6.5-7.1,8.2c-2.9,1.8-7.6,2.9-13.5,2.9h-28.8V0
		H303.2z M298.5,61.1c1.8,0,3.5,0,4.7-0.6c1.2-0.6,1.8-1.8,2.4-3.5c0.6-1.8,1.2-4.1,1.2-7.1s0-7.1,0-12.3s0-9.4,0-12.3
		s-0.6-5.3-1.2-7.1c-0.6-1.8-1.2-2.9-2.4-3.5c-1.2-0.6-2.9-0.6-4.7-0.6h-4.1v47C294.4,61.1,298.5,61.1,298.5,61.1z"/>
	<path fill="#FFFFFF" d="M349,0v75.8h-19.4V0H349z"/>
	<path fill="#FFFFFF" d="M347.8,16.5V0h49.4v16.5h-14.7v58.8h-20V16.5C362.5,16.5,347.8,16.5,347.8,16.5z"/>
</g>
</svg>
